{
  "company": {
    "1": {
      "id": 1,
      "company_name": "Google",
      "description": "Google Inc. is an American multinational technology company specializing in Internet-related services and products.",
      "logo": "https://upload.wikimedia.org/wikipedia/commons/5/51/Google.png",
      "type": "company"
    },
    "2": {
      "id": 2,
      "company_name": "Microsoft",
      "description": "Microsoft Corporation /ˈmaɪkrɵsɒːft/ (commonly referred to as Microsoft) is an American multinational technology company headquartered in Redmond, Washington, that develops, manufactures, licenses, supports and sells computer software, consumer electronics and personal computers and services.",
      "logo": "https://upload.wikimedia.org/wikipedia/commons/thumb/b/b6/Microsoft_logo_(1987).svg/2000px-Microsoft_logo_(1987).svg.png",
      "type": "company"
    }
  },
  "department": {
    "1": {
      "id": 1,
      "department_name": "Product Management",
      "company_id": 1,
      "type": "department"
    },
    "2": {
      "id": 2,
      "department_name": "Sales Operations",
      "company_id": 1,
      "type": "department"
    },
    "3": {
      "id": 3,
      "department_name": "Finance",
      "company_id": 2,
      "type": "department"
    }
  },
  "position": {
    "1": {
      "id": 1,
      "position_name": "Director",
      "salary": 200000,
      "type": "position"
    },
    "2": {
      "id": 2,
      "position_name": "Engineer",
      "salary": 90000,
      "type": "position"
    }
  },
  "person": {
    "1": {
      "id": 1,
      "first_name": "Johann",
      "last_name": "Bach",
      "middle_name": "Sebastian",
      "email": "johann.bach@gmail.com",
      "phone_number": "+7 123 456-78",
      "type": "person"
    },
    "2": {
      "id": 2,
      "first_name": "George",
      "last_name": "Welles",
      "middle_name": "Orson",
      "email": "orson.welles@gmail.com",
      "phone_number": "+7 321 987-33",
      "type": "person"
    }
  },
  "user": {
    "1": {
      "id": 1,
      "nickname": "johann",
      "department_id": 1,
      "person_id": 1,
      "position_id": 1,
      "super_user": true,
      "type": "user"
    },
    "2": {
      "id": 2,
      "nickname": "george",
      "department_id": 3,
      "person_id": 2,
      "position_id": 2,
      "super_user": false,
      "type": "user"
    }
  }
}
